%YAML 1.1
%TAG !u! tag:unity3d.com,2011:
--- !u!1001 &100100000
Prefab:
  m_ObjectHideFlags: 1
  serializedVersion: 2
  m_Modification:
    m_TransformParent: {fileID: 0}
    m_Modifications: []
    m_RemovedComponents: []
  m_ParentPrefab: {fileID: 0}
  m_RootGameObject: {fileID: 1718075369625044}
  m_IsPrefabParent: 1
--- !u!1 &1150237563888324
GameObject:
  m_ObjectHideFlags: 0
  m_PrefabParentObject: {fileID: 0}
  m_PrefabInternal: {fileID: 100100000}
  serializedVersion: 5
  m_Component:
  - component: {fileID: 4308558935034394}
  - component: {fileID: 8195094280541961906}
  - component: {fileID: 3664157345801654688}
  m_Layer: 31
  m_Name: Layer1
  m_TagString: Untagged
  m_Icon: {fileID: 0}
  m_NavMeshLayer: 0
  m_StaticEditorFlags: 0
  m_IsActive: 1
--- !u!1 &1718075369625044
GameObject:
  m_ObjectHideFlags: 0
  m_PrefabParentObject: {fileID: 0}
  m_PrefabInternal: {fileID: 100100000}
  serializedVersion: 5
  m_Component:
  - component: {fileID: 4705905881092038}
  - component: {fileID: 2569400265978591118}
  m_Layer: 31
  m_Name: Level tiles
  m_TagString: Untagged
  m_Icon: {fileID: 0}
  m_NavMeshLayer: 0
  m_StaticEditorFlags: 0
  m_IsActive: 1
--- !u!4 &4308558935034394
Transform:
  m_ObjectHideFlags: 1
  m_PrefabParentObject: {fileID: 0}
  m_PrefabInternal: {fileID: 100100000}
  m_GameObject: {fileID: 1150237563888324}
  m_LocalRotation: {x: -0, y: -0, z: -0, w: 1}
  m_LocalPosition: {x: 0, y: 0, z: 0}
  m_LocalScale: {x: 1, y: 1, z: 1}
  m_Children: []
  m_Father: {fileID: 4705905881092038}
  m_RootOrder: 0
  m_LocalEulerAnglesHint: {x: 0, y: 0, z: 0}
--- !u!4 &4705905881092038
Transform:
  m_ObjectHideFlags: 1
  m_PrefabParentObject: {fileID: 0}
  m_PrefabInternal: {fileID: 100100000}
  m_GameObject: {fileID: 1718075369625044}
  m_LocalRotation: {x: 0, y: 0, z: 0, w: 1}
  m_LocalPosition: {x: 0, y: 0, z: 0}
  m_LocalScale: {x: 1, y: 1, z: 1}
  m_Children:
  - {fileID: 4308558935034394}
  m_Father: {fileID: 0}
  m_RootOrder: 0
  m_LocalEulerAnglesHint: {x: 0, y: 0, z: 0}
--- !u!114 &114263608201750726
MonoBehaviour:
  m_ObjectHideFlags: 0
  m_PrefabParentObject: {fileID: 0}
  m_PrefabInternal: {fileID: 0}
  m_GameObject: {fileID: 0}
  m_Enabled: 1
  m_EditorHideFlags: 1
  m_Script: {fileID: 12395, guid: 0000000000000000e000000000000000, type: 0}
  m_Name: Palette Settings
  m_EditorClassIdentifier: 
  cellSizing: 0
--- !u!156049354 &2569400265978591118
Grid:
  m_ObjectHideFlags: 1
  m_PrefabParentObject: {fileID: 0}
  m_PrefabInternal: {fileID: 100100000}
  m_GameObject: {fileID: 1718075369625044}
  m_Enabled: 1
  m_CellSize: {x: 2.5, y: 2.5, z: 0}
  m_CellGap: {x: 0, y: 0, z: 0}
  m_CellLayout: 0
  m_CellSwizzle: 0
--- !u!483693784 &3664157345801654688
TilemapRenderer:
  m_ObjectHideFlags: 1
  m_PrefabParentObject: {fileID: 0}
  m_PrefabInternal: {fileID: 100100000}
  m_GameObject: {fileID: 1150237563888324}
  m_Enabled: 0
  m_CastShadows: 0
  m_ReceiveShadows: 0
  m_DynamicOccludee: 0
  m_MotionVectors: 1
  m_LightProbeUsage: 0
  m_ReflectionProbeUsage: 0
  m_Materials:
  - {fileID: 10754, guid: 0000000000000000f000000000000000, type: 0}
  m_StaticBatchInfo:
    firstSubMesh: 0
    subMeshCount: 0
  m_StaticBatchRoot: {fileID: 0}
  m_ProbeAnchor: {fileID: 0}
  m_LightProbeVolumeOverride: {fileID: 0}
  m_ScaleInLightmap: 1
  m_PreserveUVs: 0
  m_IgnoreNormalsForChartDetection: 0
  m_ImportantGI: 0
  m_StitchLightmapSeams: 0
  m_SelectedEditorRenderState: 0
  m_MinimumChartSize: 4
  m_AutoUVMaxDistance: 0.5
  m_AutoUVMaxAngle: 89
  m_LightmapParameters: {fileID: 0}
  m_SortingLayerID: 0
  m_SortingLayer: 0
  m_SortingOrder: 0
  m_ChunkSize: {x: 32, y: 32, z: 32}
  m_MaxChunkCount: 16
  m_MaxFrameAge: 16
  m_SortOrder: 0
  m_MaskInteraction: 0
--- !u!1839735485 &8195094280541961906
Tilemap:
  m_ObjectHideFlags: 1
  m_PrefabParentObject: {fileID: 0}
  m_PrefabInternal: {fileID: 100100000}
  m_GameObject: {fileID: 1150237563888324}
  m_Enabled: 1
  m_Tiles:
  - first: {x: -4, y: -11, z: 0}
    second:
      m_TileIndex: 30
      m_TileSpriteIndex: 5
      m_TileMatrixIndex: 0
      m_TileColorIndex: 0
      m_ObjectToInstantiate: {fileID: 0}
      m_TileFlags: 1
      m_ColliderType: 1
  - first: {x: -3, y: -11, z: 0}
    second:
      m_TileIndex: 19
      m_TileSpriteIndex: 4
      m_TileMatrixIndex: 0
      m_TileColorIndex: 0
      m_ObjectToInstantiate: {fileID: 0}
      m_TileFlags: 1
      m_ColliderType: 1
  - first: {x: -2, y: -11, z: 0}
    second:
      m_TileIndex: 18
      m_TileSpriteIndex: 3
      m_TileMatrixIndex: 0
      m_TileColorIndex: 0
      m_ObjectToInstantiate: {fileID: 0}
      m_TileFlags: 1
      m_ColliderType: 1
  - first: {x: -6, y: -8, z: 0}
    second:
      m_TileIndex: 47
      m_TileSpriteIndex: 47
      m_TileMatrixIndex: 0
      m_TileColorIndex: 0
      m_ObjectToInstantiate: {fileID: 0}
      m_TileFlags: 1
      m_ColliderType: 1
  - first: {x: -5, y: -8, z: 0}
    second:
      m_TileIndex: 45
      m_TileSpriteIndex: 45
      m_TileMatrixIndex: 0
      m_TileColorIndex: 0
      m_ObjectToInstantiate: {fileID: 0}
      m_TileFlags: 1
      m_ColliderType: 1
  - first: {x: -6, y: -7, z: 0}
    second:
      m_TileIndex: 44
      m_TileSpriteIndex: 44
      m_TileMatrixIndex: 0
      m_TileColorIndex: 0
      m_ObjectToInstantiate: {fileID: 0}
      m_TileFlags: 1
      m_ColliderType: 1
  - first: {x: -5, y: -7, z: 0}
    second:
      m_TileIndex: 43
      m_TileSpriteIndex: 43
      m_TileMatrixIndex: 0
      m_TileColorIndex: 0
      m_ObjectToInstantiate: {fileID: 0}
      m_TileFlags: 1
      m_ColliderType: 1
  - first: {x: -4, y: -7, z: 0}
    second:
      m_TileIndex: 46
      m_TileSpriteIndex: 46
      m_TileMatrixIndex: 0
      m_TileColorIndex: 0
      m_ObjectToInstantiate: {fileID: 0}
      m_TileFlags: 1
      m_ColliderType: 1
  - first: {x: -1, y: -7, z: 0}
    second:
      m_TileIndex: 56
      m_TileSpriteIndex: 56
      m_TileMatrixIndex: 0
      m_TileColorIndex: 0
      m_ObjectToInstantiate: {fileID: 0}
      m_TileFlags: 1
      m_ColliderType: 1
  - first: {x: -6, y: -6, z: 0}
    second:
      m_TileIndex: 41
      m_TileSpriteIndex: 41
      m_TileMatrixIndex: 0
      m_TileColorIndex: 0
      m_ObjectToInstantiate: {fileID: 0}
      m_TileFlags: 1
      m_ColliderType: 1
  - first: {x: -5, y: -6, z: 0}
    second:
      m_TileIndex: 42
      m_TileSpriteIndex: 42
      m_TileMatrixIndex: 0
      m_TileColorIndex: 0
      m_ObjectToInstantiate: {fileID: 0}
      m_TileFlags: 1
      m_ColliderType: 1
  - first: {x: -4, y: -6, z: 0}
    second:
      m_TileIndex: 43
      m_TileSpriteIndex: 43
      m_TileMatrixIndex: 0
      m_TileColorIndex: 0
      m_ObjectToInstantiate: {fileID: 0}
      m_TileFlags: 1
      m_ColliderType: 1
  - first: {x: -1, y: -6, z: 0}
    second:
      m_TileIndex: 53
      m_TileSpriteIndex: 53
      m_TileMatrixIndex: 0
      m_TileColorIndex: 0
      m_ObjectToInstantiate: {fileID: 0}
      m_TileFlags: 1
      m_ColliderType: 1
  - first: {x: 0, y: -6, z: 0}
    second:
      m_TileIndex: 54
      m_TileSpriteIndex: 54
      m_TileMatrixIndex: 0
      m_TileColorIndex: 0
      m_ObjectToInstantiate: {fileID: 0}
      m_TileFlags: 1
      m_ColliderType: 1
  - first: {x: 1, y: -6, z: 0}
    second:
      m_TileIndex: 55
      m_TileSpriteIndex: 55
      m_TileMatrixIndex: 0
      m_TileColorIndex: 0
      m_ObjectToInstantiate: {fileID: 0}
      m_TileFlags: 1
      m_ColliderType: 1
  - first: {x: -1, y: -4, z: 0}
    second:
      m_TileIndex: 39
      m_TileSpriteIndex: 39
      m_TileMatrixIndex: 0
      m_TileColorIndex: 0
      m_ObjectToInstantiate: {fileID: 0}
      m_TileFlags: 1
      m_ColliderType: 1
  - first: {x: 0, y: -4, z: 0}
    second:
      m_TileIndex: 40
      m_TileSpriteIndex: 40
      m_TileMatrixIndex: 0
      m_TileColorIndex: 0
      m_ObjectToInstantiate: {fileID: 0}
      m_TileFlags: 1
      m_ColliderType: 1
  - first: {x: -6, y: -3, z: 0}
    second:
      m_TileIndex: 51
      m_TileSpriteIndex: 51
      m_TileMatrixIndex: 0
      m_TileColorIndex: 0
      m_ObjectToInstantiate: {fileID: 0}
      m_TileFlags: 1
      m_ColliderType: 1
  - first: {x: -5, y: -3, z: 0}
    second:
      m_TileIndex: 52
      m_TileSpriteIndex: 52
      m_TileMatrixIndex: 0
      m_TileColorIndex: 0
      m_ObjectToInstantiate: {fileID: 0}
      m_TileFlags: 1
      m_ColliderType: 1
  - first: {x: -1, y: -3, z: 0}
    second:
      m_TileIndex: 35
      m_TileSpriteIndex: 35
      m_TileMatrixIndex: 0
      m_TileColorIndex: 0
      m_ObjectToInstantiate: {fileID: 0}
      m_TileFlags: 1
      m_ColliderType: 1
  - first: {x: 0, y: -3, z: 0}
    second:
      m_TileIndex: 36
      m_TileSpriteIndex: 36
      m_TileMatrixIndex: 0
      m_TileColorIndex: 0
      m_ObjectToInstantiate: {fileID: 0}
      m_TileFlags: 1
      m_ColliderType: 1
  - first: {x: 1, y: -3, z: 0}
    second:
      m_TileIndex: 37
      m_TileSpriteIndex: 37
      m_TileMatrixIndex: 0
      m_TileColorIndex: 0
      m_ObjectToInstantiate: {fileID: 0}
      m_TileFlags: 1
      m_ColliderType: 1
  - first: {x: 2, y: -3, z: 0}
    second:
      m_TileIndex: 38
      m_TileSpriteIndex: 38
      m_TileMatrixIndex: 0
      m_TileColorIndex: 0
      m_ObjectToInstantiate: {fileID: 0}
      m_TileFlags: 1
      m_ColliderType: 1
  - first: {x: -6, y: -2, z: 0}
    second:
      m_TileIndex: 48
      m_TileSpriteIndex: 48
      m_TileMatrixIndex: 0
      m_TileColorIndex: 0
      m_ObjectToInstantiate: {fileID: 0}
      m_TileFlags: 1
      m_ColliderType: 1
  - first: {x: -5, y: -2, z: 0}
    second:
      m_TileIndex: 49
      m_TileSpriteIndex: 49
      m_TileMatrixIndex: 0
      m_TileColorIndex: 0
      m_ObjectToInstantiate: {fileID: 0}
      m_TileFlags: 1
      m_ColliderType: 1
  - first: {x: -4, y: -2, z: 0}
    second:
      m_TileIndex: 50
      m_TileSpriteIndex: 50
      m_TileMatrixIndex: 0
      m_TileColorIndex: 0
      m_ObjectToInstantiate: {fileID: 0}
      m_TileFlags: 1
      m_ColliderType: 1
  - first: {x: -1, y: -2, z: 0}
    second:
      m_TileIndex: 31
      m_TileSpriteIndex: 31
      m_TileMatrixIndex: 0
      m_TileColorIndex: 0
      m_ObjectToInstantiate: {fileID: 0}
      m_TileFlags: 1
      m_ColliderType: 1
  - first: {x: 0, y: -2, z: 0}
    second:
      m_TileIndex: 32
      m_TileSpriteIndex: 32
      m_TileMatrixIndex: 0
      m_TileColorIndex: 0
      m_ObjectToInstantiate: {fileID: 0}
      m_TileFlags: 1
      m_ColliderType: 1
  - first: {x: 1, y: -2, z: 0}
    second:
      m_TileIndex: 33
      m_TileSpriteIndex: 33
      m_TileMatrixIndex: 0
      m_TileColorIndex: 0
      m_ObjectToInstantiate: {fileID: 0}
      m_TileFlags: 1
      m_ColliderType: 1
  - first: {x: 2, y: -2, z: 0}
    second:
      m_TileIndex: 34
      m_TileSpriteIndex: 34
      m_TileMatrixIndex: 0
      m_TileColorIndex: 0
      m_ObjectToInstantiate: {fileID: 0}
      m_TileFlags: 1
      m_ColliderType: 1
  - first: {x: -1, y: 0, z: 0}
    second:
      m_TileIndex: 20
      m_TileSpriteIndex: 14
      m_TileMatrixIndex: 0
      m_TileColorIndex: 0
      m_ObjectToInstantiate: {fileID: 0}
      m_TileFlags: 1
      m_ColliderType: 1
  - first: {x: -6, y: 1, z: 0}
    second:
      m_TileIndex: 57
      m_TileSpriteIndex: 57
      m_TileMatrixIndex: 0
      m_TileColorIndex: 0
      m_ObjectToInstantiate: {fileID: 0}
      m_TileFlags: 1
      m_ColliderType: 1
  - first: {x: -1, y: 1, z: 0}
    second:
      m_TileIndex: 13
      m_TileSpriteIndex: 15
      m_TileMatrixIndex: 0
      m_TileColorIndex: 0
      m_ObjectToInstantiate: {fileID: 0}
      m_TileFlags: 1
      m_ColliderType: 1
  - first: {x: 0, y: 1, z: 0}
    second:
      m_TileIndex: 14
      m_TileSpriteIndex: 13
      m_TileMatrixIndex: 0
      m_TileColorIndex: 0
      m_ObjectToInstantiate: {fileID: 0}
      m_TileFlags: 1
      m_ColliderType: 1
  - first: {x: 1, y: 1, z: 0}
    second:
      m_TileIndex: 15
      m_TileSpriteIndex: 8
      m_TileMatrixIndex: 0
      m_TileColorIndex: 0
      m_ObjectToInstantiate: {fileID: 0}
      m_TileFlags: 1
      m_ColliderType: 1
  - first: {x: 2, y: 1, z: 0}
    second:
      m_TileIndex: 16
      m_TileSpriteIndex: 7
      m_TileMatrixIndex: 0
      m_TileColorIndex: 0
      m_ObjectToInstantiate: {fileID: 0}
      m_TileFlags: 1
      m_ColliderType: 1
  - first: {x: -6, y: 3, z: 0}
    second:
      m_TileIndex: 27
      m_TileSpriteIndex: 27
      m_TileMatrixIndex: 0
      m_TileColorIndex: 0
      m_ObjectToInstantiate: {fileID: 0}
      m_TileFlags: 1
      m_ColliderType: 1
  - first: {x: -5, y: 3, z: 0}
    second:
      m_TileIndex: 28
      m_TileSpriteIndex: 28
      m_TileMatrixIndex: 0
      m_TileColorIndex: 0
      m_ObjectToInstantiate: {fileID: 0}
      m_TileFlags: 1
      m_ColliderType: 1
  - first: {x: -4, y: 3, z: 0}
    second:
      m_TileIndex: 29
      m_TileSpriteIndex: 29
      m_TileMatrixIndex: 0
      m_TileColorIndex: 0
      m_ObjectToInstantiate: {fileID: 0}
      m_TileFlags: 1
      m_ColliderType: 1
  - first: {x: -1, y: 3, z: 0}
    second:
      m_TileIndex: 12
      m_TileSpriteIndex: 20
      m_TileMatrixIndex: 0
      m_TileColorIndex: 0
      m_ObjectToInstantiate: {fileID: 0}
      m_TileFlags: 1
      m_ColliderType: 1
  - first: {x: 0, y: 3, z: 0}
    second:
      m_TileIndex: 7
      m_TileSpriteIndex: 11
      m_TileMatrixIndex: 0
      m_TileColorIndex: 0
      m_ObjectToInstantiate: {fileID: 0}
      m_TileFlags: 1
      m_ColliderType: 1
  - first: {x: -6, y: 4, z: 0}
    second:
      m_TileIndex: 24
      m_TileSpriteIndex: 24
      m_TileMatrixIndex: 0
      m_TileColorIndex: 0
      m_ObjectToInstantiate: {fileID: 0}
      m_TileFlags: 1
      m_ColliderType: 1
  - first: {x: -5, y: 4, z: 0}
    second:
      m_TileIndex: 25
      m_TileSpriteIndex: 25
      m_TileMatrixIndex: 0
      m_TileColorIndex: 0
      m_ObjectToInstantiate: {fileID: 0}
      m_TileFlags: 1
      m_ColliderType: 1
  - first: {x: -4, y: 4, z: 0}
    second:
      m_TileIndex: 26
      m_TileSpriteIndex: 26
      m_TileMatrixIndex: 0
      m_TileColorIndex: 0
      m_ObjectToInstantiate: {fileID: 0}
      m_TileFlags: 1
      m_ColliderType: 1
  - first: {x: -1, y: 4, z: 0}
    second:
      m_TileIndex: 3
      m_TileSpriteIndex: 9
      m_TileMatrixIndex: 0
      m_TileColorIndex: 0
      m_ObjectToInstantiate: {fileID: 0}
      m_TileFlags: 1
      m_ColliderType: 1
  - first: {x: 0, y: 4, z: 0}
    second:
      m_TileIndex: 4
      m_TileSpriteIndex: 16
      m_TileMatrixIndex: 0
      m_TileColorIndex: 0
      m_ObjectToInstantiate: {fileID: 0}
      m_TileFlags: 1
      m_ColliderType: 1
  - first: {x: 1, y: 4, z: 0}
    second:
      m_TileIndex: 5
      m_TileSpriteIndex: 17
      m_TileMatrixIndex: 0
      m_TileColorIndex: 0
      m_ObjectToInstantiate: {fileID: 0}
      m_TileFlags: 1
      m_ColliderType: 1
  - first: {x: 2, y: 4, z: 0}
    second:
      m_TileIndex: 6
      m_TileSpriteIndex: 12
      m_TileMatrixIndex: 0
      m_TileColorIndex: 0
      m_ObjectToInstantiate: {fileID: 0}
      m_TileFlags: 1
      m_ColliderType: 1
  - first: {x: -6, y: 5, z: 0}
    second:
      m_TileIndex: 0
      m_TileSpriteIndex: 6
      m_TileMatrixIndex: 0
      m_TileColorIndex: 0
      m_ObjectToInstantiate: {fileID: 0}
      m_TileFlags: 1
      m_ColliderType: 1
  - first: {x: -5, y: 5, z: 0}
    second:
      m_TileIndex: 21
      m_TileSpriteIndex: 21
      m_TileMatrixIndex: 0
      m_TileColorIndex: 0
      m_ObjectToInstantiate: {fileID: 0}
      m_TileFlags: 1
      m_ColliderType: 1
  - first: {x: -4, y: 5, z: 0}
    second:
      m_TileIndex: 22
      m_TileSpriteIndex: 22
      m_TileMatrixIndex: 0
      m_TileColorIndex: 0
      m_ObjectToInstantiate: {fileID: 0}
      m_TileFlags: 1
      m_ColliderType: 1
  - first: {x: -3, y: 5, z: 0}
    second:
      m_TileIndex: 23
      m_TileSpriteIndex: 23
      m_TileMatrixIndex: 0
      m_TileColorIndex: 0
      m_ObjectToInstantiate: {fileID: 0}
      m_TileFlags: 1
      m_ColliderType: 1
  - first: {x: -1, y: 5, z: 0}
    second:
      m_TileIndex: 11
      m_TileSpriteIndex: 19
      m_TileMatrixIndex: 0
      m_TileColorIndex: 0
      m_ObjectToInstantiate: {fileID: 0}
      m_TileFlags: 1
      m_ColliderType: 1
  - first: {x: 0, y: 5, z: 0}
    second:
      m_TileIndex: 10
      m_TileSpriteIndex: 18
      m_TileMatrixIndex: 0
      m_TileColorIndex: 0
      m_ObjectToInstantiate: {fileID: 0}
      m_TileFlags: 1
      m_ColliderType: 1
  - first: {x: 1, y: 5, z: 0}
    second:
      m_TileIndex: 9
      m_TileSpriteIndex: 30
      m_TileMatrixIndex: 0
      m_TileColorIndex: 0
      m_ObjectToInstantiate: {fileID: 0}
      m_TileFlags: 1
      m_ColliderType: 1
  - first: {x: 2, y: 5, z: 0}
    second:
      m_TileIndex: 8
      m_TileSpriteIndex: 10
      m_TileMatrixIndex: 0
      m_TileColorIndex: 0
      m_ObjectToInstantiate: {fileID: 0}
      m_TileFlags: 1
      m_ColliderType: 1
  m_AnimatedTiles: {}
  m_TileAssetArray:
  - m_RefCount: 1
    m_Data: {fileID: 11400000, guid: 9f58517ec79826d41b03e669ef9db9ab, type: 2}
  - m_RefCount: 0
    m_Data: {fileID: 0}
  - m_RefCount: 0
    m_Data: {fileID: 0}
  - m_RefCount: 1
    m_Data: {fileID: 11400000, guid: ae1e8de7cac936a48bbf43679b1c7810, type: 2}
  - m_RefCount: 1
    m_Data: {fileID: 11400000, guid: ac556b5e0f34c184a8d0b165db772edd, type: 2}
  - m_RefCount: 1
    m_Data: {fileID: 11400000, guid: 6e61841785043344a966121142a9f15c, type: 2}
  - m_RefCount: 1
    m_Data: {fileID: 11400000, guid: 8515d644a744b7c48a6c2c4865d7661d, type: 2}
  - m_RefCount: 1
    m_Data: {fileID: 11400000, guid: 34edee4c7fca80141a8b061198afced9, type: 2}
  - m_RefCount: 1
    m_Data: {fileID: 11400000, guid: d451b3b007533644d8c16114aabe7cb6, type: 2}
  - m_RefCount: 1
    m_Data: {fileID: 11400000, guid: 182305f0746005442856b00bf9d28d9d, type: 2}
  - m_RefCount: 1
    m_Data: {fileID: 11400000, guid: a96cc6c035e673949ae10844dc5ca9e8, type: 2}
  - m_RefCount: 1
    m_Data: {fileID: 11400000, guid: 4513682442b14b64eb48454f339ec9dd, type: 2}
  - m_RefCount: 1
    m_Data: {fileID: 11400000, guid: 864dbe47243d55a4db78a37de653aad7, type: 2}
  - m_RefCount: 1
    m_Data: {fileID: 11400000, guid: 885b37401fcfac54c9159d9c6658dd98, type: 2}
  - m_RefCount: 1
    m_Data: {fileID: 11400000, guid: 2c4558b2dda88924da2b5ed059d03e55, type: 2}
  - m_RefCount: 1
    m_Data: {fileID: 11400000, guid: d8fa35a70e457f04a92b018ceb8baaec, type: 2}
  - m_RefCount: 1
    m_Data: {fileID: 11400000, guid: 843b06d7193336d409f703f5aaf1c061, type: 2}
  - m_RefCount: 0
    m_Data: {fileID: 0}
  - m_RefCount: 1
    m_Data: {fileID: 11400000, guid: 7ff25de25010b3a429865110ae58817b, type: 2}
  - m_RefCount: 1
    m_Data: {fileID: 11400000, guid: 20c8417bd89e8054c86a1e5cce552d76, type: 2}
  - m_RefCount: 1
    m_Data: {fileID: 11400000, guid: 3ef3aba8cc590764993a93dacbafb495, type: 2}
  - m_RefCount: 1
    m_Data: {fileID: 11400000, guid: e7ab7e6da9bdfa3418249254d8e3c4db, type: 2}
  - m_RefCount: 1
    m_Data: {fileID: 11400000, guid: 3ae69d92ca347324194844393ab99175, type: 2}
  - m_RefCount: 1
    m_Data: {fileID: 11400000, guid: c8bc277efb4a4ea4983318ddeb7fee61, type: 2}
  - m_RefCount: 1
    m_Data: {fileID: 11400000, guid: c80e213e69e31b040bdbbee9852fc3d5, type: 2}
  - m_RefCount: 1
    m_Data: {fileID: 11400000, guid: 4e4837aab3bc60445a2d485bfc0bab78, type: 2}
  - m_RefCount: 1
    m_Data: {fileID: 11400000, guid: f152f5ee5aae6214da42239e33499c37, type: 2}
  - m_RefCount: 1
    m_Data: {fileID: 11400000, guid: 5a7dd148c9be01642a700ec1083c2def, type: 2}
  - m_RefCount: 1
    m_Data: {fileID: 11400000, guid: da67aa19cca2f394188164297b282cd1, type: 2}
  - m_RefCount: 1
    m_Data: {fileID: 11400000, guid: a3ae365a90a5a7341821a8acabf418c6, type: 2}
  - m_RefCount: 1
    m_Data: {fileID: 11400000, guid: f6aa0825007c3704e85b7028b10005a9, type: 2}
  - m_RefCount: 1
    m_Data: {fileID: 11400000, guid: 23421afdb6d1ac14b982d90618f3c4c8, type: 2}
  - m_RefCount: 1
    m_Data: {fileID: 11400000, guid: b2a96931dd13027458465e083037c6e1, type: 2}
  - m_RefCount: 1
    m_Data: {fileID: 11400000, guid: 13386599151d29a408bbe2f92961e7f7, type: 2}
  - m_RefCount: 1
    m_Data: {fileID: 11400000, guid: aff67b237f9664b4bac9f84f9eec7607, type: 2}
  - m_RefCount: 1
    m_Data: {fileID: 11400000, guid: 3a8e5f96ff7135940a88db6c43c15c1a, type: 2}
  - m_RefCount: 1
    m_Data: {fileID: 11400000, guid: 33b202b4ad4fca64b97caca324c9a2c2, type: 2}
  - m_RefCount: 1
    m_Data: {fileID: 11400000, guid: a8ab2420d7875174e9a9ed4233f63bc9, type: 2}
  - m_RefCount: 1
    m_Data: {fileID: 11400000, guid: 528c8e045a9a64047adb5bd350b6a026, type: 2}
  - m_RefCount: 1
    m_Data: {fileID: 11400000, guid: c625dbcff525a0047bdcfb4de66a6d2a, type: 2}
  - m_RefCount: 1
    m_Data: {fileID: 11400000, guid: 68a81c02e1d619b4e93be7cd3ee5e531, type: 2}
  - m_RefCount: 1
    m_Data: {fileID: 11400000, guid: 9421811d78eef9a4ba09937ff381a046, type: 2}
  - m_RefCount: 1
    m_Data: {fileID: 11400000, guid: 73b837f1330eea54688b3c26a0ebc58c, type: 2}
  - m_RefCount: 2
    m_Data: {fileID: 11400000, guid: c77e85e9564dc4b4889d710f586e57dc, type: 2}
  - m_RefCount: 1
    m_Data: {fileID: 11400000, guid: 4ca4317690c3bea42b274743f65e10c5, type: 2}
  - m_RefCount: 1
    m_Data: {fileID: 11400000, guid: f78483db99c442345a6801a103255b89, type: 2}
  - m_RefCount: 1
    m_Data: {fileID: 11400000, guid: ac4e915e02166824c9a181137467ffc5, type: 2}
  - m_RefCount: 1
    m_Data: {fileID: 11400000, guid: 15894738316694843b6259d60223a903, type: 2}
  - m_RefCount: 1
    m_Data: {fileID: 11400000, guid: 35cb677ae1ab9a14095507eec0fbdd7b, type: 2}
  - m_RefCount: 1
    m_Data: {fileID: 11400000, guid: 8e4ce8488b5525d49b3486ec12b21f1f, type: 2}
  - m_RefCount: 1
    m_Data: {fileID: 11400000, guid: 06976ec0238c0ba4b9a9571638da4500, type: 2}
  - m_RefCount: 1
    m_Data: {fileID: 11400000, guid: 68c15b2c712af1642a8237431c41a0a0, type: 2}
  - m_RefCount: 1
    m_Data: {fileID: 11400000, guid: 486ac4f92ffd1774b944278ed1d553d6, type: 2}
  - m_RefCount: 1
    m_Data: {fileID: 11400000, guid: 6facfd114615105498deba79ee856bef, type: 2}
  - m_RefCount: 1
    m_Data: {fileID: 11400000, guid: 01103c8f876494147ad9d4aef13831a9, type: 2}
  - m_RefCount: 1
    m_Data: {fileID: 11400000, guid: 2ba796369655c3747807cbea7f0cf6df, type: 2}
  - m_RefCount: 1
    m_Data: {fileID: 11400000, guid: eefab5a1abfe9bc409f3e5017d7b473a, type: 2}
  - m_RefCount: 1
    m_Data: {fileID: 11400000, guid: ce55a1c06097d3143b94eca0bcddddc7, type: 2}
  m_TileSpriteArray:
  - m_RefCount: 0
    m_Data: {fileID: 0}
  - m_RefCount: 0
    m_Data: {fileID: 0}
  - m_RefCount: 0
    m_Data: {fileID: 0}
  - m_RefCount: 1
    m_Data: {fileID: 21300090, guid: 42f5d246ac2dbb443848d8ebd1069329, type: 3}
  - m_RefCount: 1
    m_Data: {fileID: 21300088, guid: 42f5d246ac2dbb443848d8ebd1069329, type: 3}
  - m_RefCount: 1
    m_Data: {fileID: 21300086, guid: 42f5d246ac2dbb443848d8ebd1069329, type: 3}
  - m_RefCount: 1
    m_Data: {fileID: 21300026, guid: 42f5d246ac2dbb443848d8ebd1069329, type: 3}
  - m_RefCount: 1
    m_Data: {fileID: 21300014, guid: af04f198fef34974bbf2081fdddc993c, type: 3}
  - m_RefCount: 1
    m_Data: {fileID: 21300012, guid: af04f198fef34974bbf2081fdddc993c, type: 3}
  - m_RefCount: 1
    m_Data: {fileID: 21300008, guid: 42f5d246ac2dbb443848d8ebd1069329, type: 3}
  - m_RefCount: 1
    m_Data: {fileID: 21300006, guid: 42f5d246ac2dbb443848d8ebd1069329, type: 3}
  - m_RefCount: 1
    m_Data: {fileID: 21300014, guid: 42f5d246ac2dbb443848d8ebd1069329, type: 3}
  - m_RefCount: 1
    m_Data: {fileID: 21300012, guid: 42f5d246ac2dbb443848d8ebd1069329, type: 3}
  - m_RefCount: 1
    m_Data: {fileID: 21300010, guid: af04f198fef34974bbf2081fdddc993c, type: 3}
  - m_RefCount: 1
    m_Data: {fileID: 21300024, guid: af04f198fef34974bbf2081fdddc993c, type: 3}
  - m_RefCount: 1
    m_Data: {fileID: 21300008, guid: af04f198fef34974bbf2081fdddc993c, type: 3}
  - m_RefCount: 1
    m_Data: {fileID: 21300000, guid: af04f198fef34974bbf2081fdddc993c, type: 3}
  - m_RefCount: 1
    m_Data: {fileID: 21300010, guid: 42f5d246ac2dbb443848d8ebd1069329, type: 3}
  - m_RefCount: 1
    m_Data: {fileID: 21300002, guid: 42f5d246ac2dbb443848d8ebd1069329, type: 3}
  - m_RefCount: 1
    m_Data: {fileID: 21300000, guid: 42f5d246ac2dbb443848d8ebd1069329, type: 3}
  - m_RefCount: 1
    m_Data: {fileID: 21300016, guid: af04f198fef34974bbf2081fdddc993c, type: 3}
  - m_RefCount: 1
    m_Data: {fileID: 21300028, guid: 42f5d246ac2dbb443848d8ebd1069329, type: 3}
  - m_RefCount: 1
    m_Data: {fileID: 21300030, guid: 42f5d246ac2dbb443848d8ebd1069329, type: 3}
  - m_RefCount: 1
    m_Data: {fileID: 21300032, guid: 42f5d246ac2dbb443848d8ebd1069329, type: 3}
  - m_RefCount: 1
    m_Data: {fileID: 21300034, guid: 42f5d246ac2dbb443848d8ebd1069329, type: 3}
  - m_RefCount: 1
    m_Data: {fileID: 21300036, guid: 42f5d246ac2dbb443848d8ebd1069329, type: 3}
  - m_RefCount: 1
    m_Data: {fileID: 21300038, guid: 42f5d246ac2dbb443848d8ebd1069329, type: 3}
  - m_RefCount: 1
    m_Data: {fileID: 21300040, guid: 42f5d246ac2dbb443848d8ebd1069329, type: 3}
  - m_RefCount: 1
    m_Data: {fileID: 21300042, guid: 42f5d246ac2dbb443848d8ebd1069329, type: 3}
  - m_RefCount: 1
    m_Data: {fileID: 21300044, guid: 42f5d246ac2dbb443848d8ebd1069329, type: 3}
  - m_RefCount: 1
    m_Data: {fileID: 21300004, guid: 42f5d246ac2dbb443848d8ebd1069329, type: 3}
  - m_RefCount: 1
    m_Data: {fileID: 21300066, guid: 42f5d246ac2dbb443848d8ebd1069329, type: 3}
  - m_RefCount: 1
    m_Data: {fileID: 21300068, guid: 42f5d246ac2dbb443848d8ebd1069329, type: 3}
  - m_RefCount: 1
    m_Data: {fileID: 21300070, guid: 42f5d246ac2dbb443848d8ebd1069329, type: 3}
  - m_RefCount: 1
    m_Data: {fileID: 21300072, guid: 42f5d246ac2dbb443848d8ebd1069329, type: 3}
  - m_RefCount: 1
    m_Data: {fileID: 21300074, guid: 42f5d246ac2dbb443848d8ebd1069329, type: 3}
  - m_RefCount: 1
    m_Data: {fileID: 21300076, guid: 42f5d246ac2dbb443848d8ebd1069329, type: 3}
  - m_RefCount: 1
    m_Data: {fileID: 21300078, guid: 42f5d246ac2dbb443848d8ebd1069329, type: 3}
  - m_RefCount: 1
    m_Data: {fileID: 21300080, guid: 42f5d246ac2dbb443848d8ebd1069329, type: 3}
  - m_RefCount: 1
    m_Data: {fileID: 21300082, guid: 42f5d246ac2dbb443848d8ebd1069329, type: 3}
  - m_RefCount: 1
    m_Data: {fileID: 21300084, guid: 42f5d246ac2dbb443848d8ebd1069329, type: 3}
  - m_RefCount: 1
    m_Data: {fileID: 21300052, guid: 42f5d246ac2dbb443848d8ebd1069329, type: 3}
  - m_RefCount: 1
    m_Data: {fileID: 21300054, guid: 42f5d246ac2dbb443848d8ebd1069329, type: 3}
  - m_RefCount: 2
    m_Data: {fileID: 21300056, guid: 42f5d246ac2dbb443848d8ebd1069329, type: 3}
  - m_RefCount: 1
    m_Data: {fileID: 21300058, guid: 42f5d246ac2dbb443848d8ebd1069329, type: 3}
  - m_RefCount: 1
    m_Data: {fileID: 21300060, guid: 42f5d246ac2dbb443848d8ebd1069329, type: 3}
  - m_RefCount: 1
    m_Data: {fileID: 21300062, guid: 42f5d246ac2dbb443848d8ebd1069329, type: 3}
  - m_RefCount: 1
    m_Data: {fileID: 21300064, guid: 42f5d246ac2dbb443848d8ebd1069329, type: 3}
  - m_RefCount: 1
    m_Data: {fileID: 21300092, guid: 42f5d246ac2dbb443848d8ebd1069329, type: 3}
  - m_RefCount: 1
    m_Data: {fileID: 21300094, guid: 42f5d246ac2dbb443848d8ebd1069329, type: 3}
  - m_RefCount: 1
    m_Data: {fileID: 21300096, guid: 42f5d246ac2dbb443848d8ebd1069329, type: 3}
  - m_RefCount: 1
    m_Data: {fileID: 21300098, guid: 42f5d246ac2dbb443848d8ebd1069329, type: 3}
  - m_RefCount: 1
    m_Data: {fileID: 21300100, guid: 42f5d246ac2dbb443848d8ebd1069329, type: 3}
  - m_RefCount: 1
    m_Data: {fileID: 21300108, guid: 42f5d246ac2dbb443848d8ebd1069329, type: 3}
  - m_RefCount: 1
    m_Data: {fileID: 21300106, guid: 42f5d246ac2dbb443848d8ebd1069329, type: 3}
  - m_RefCount: 1
    m_Data: {fileID: 21300104, guid: 42f5d246ac2dbb443848d8ebd1069329, type: 3}
  - m_RefCount: 1
    m_Data: {fileID: 21300102, guid: 42f5d246ac2dbb443848d8ebd1069329, type: 3}
  - m_RefCount: 1
    m_Data: {fileID: 21300110, guid: 42f5d246ac2dbb443848d8ebd1069329, type: 3}
  m_TileMatrixArray:
  - m_RefCount: 56
    m_Data:
      e00: 1
      e01: 0
      e02: 0
      e03: 0
      e10: 0
      e11: 1
      e12: 0
      e13: 0
      e20: 0
      e21: 0
      e22: 1
      e23: 0
      e30: 0
      e31: 0
      e32: 0
      e33: 1
  m_TileColorArray:
  - m_RefCount: 56
    m_Data: {r: 1, g: 1, b: 1, a: 1}
  - m_RefCount: 0
    m_Data: {r: 0, g: 0, b: 0.00025193137, a: 0}
  - m_RefCount: 0
    m_Data: {r: 0, g: 0, b: 0.00025193137, a: 0}
  - m_RefCount: 0
    m_Data: {r: 0, g: 0, b: 0.00025193137, a: 0}
  - m_RefCount: 0
    m_Data: {r: 0, g: 0, b: 0.00025193137, a: 0}
  - m_RefCount: 0
    m_Data: {r: 0, g: 0, b: 0.00025193137, a: 0}
  - m_RefCount: 0
    m_Data: {r: 0.000001958104, g: 0, b: 128622400, a: 0}
  - m_RefCount: 0
    m_Data: {r: 2.2e-44, g: 0, b: 0, a: NaN}
  - m_RefCount: 0
    m_Data: {r: 0, g: 0, b: 0.00025193137, a: 0}
  m_AnimationFrameRate: 1
  m_Color: {r: 1, g: 1, b: 1, a: 1}
  m_Origin: {x: -7, y: -30, z: 0}
  m_Size: {x: 62, y: 41, z: 1}
  m_TileAnchor: {x: 0.5, y: 0.5, z: 0}
  m_TileOrientation: 0
  m_TileOrientationMatrix:
    e00: 1
    e01: 0
    e02: 0
    e03: 0
    e10: 0
    e11: 1
    e12: 0
    e13: 0
    e20: 0
    e21: 0
    e22: 1
    e23: 0
    e30: 0
    e31: 0
    e32: 0
    e33: 1
  m_TileRefreshArray:
  - serializedVersion: 1
    m_DirtyIndex: 0
  - serializedVersion: 1
    m_DirtyIndex: 0
  - serializedVersion: 1
    m_DirtyIndex: 0
  - serializedVersion: 1
    m_DirtyIndex: 0
  - serializedVersion: 1
    m_DirtyIndex: 0
  - serializedVersion: 1
    m_DirtyIndex: 0
  - serializedVersion: 1
    m_DirtyIndex: 0
  - serializedVersion: 1
    m_DirtyIndex: 0
  - serializedVersion: 1
    m_DirtyIndex: 0
  - serializedVersion: 1
    m_DirtyIndex: 0
  - serializedVersion: 1
    m_DirtyIndex: 0
  - serializedVersion: 1
    m_DirtyIndex: 0
  - serializedVersion: 1
    m_DirtyIndex: 0
  - serializedVersion: 1
    m_DirtyIndex: 0
  - serializedVersion: 1
    m_DirtyIndex: 0
  - serializedVersion: 1
    m_DirtyIndex: 0
  - serializedVersion: 1
    m_DirtyIndex: 0
  - serializedVersion: 1
    m_DirtyIndex: 0
  - serializedVersion: 1
    m_DirtyIndex: 0
  - serializedVersion: 1
    m_DirtyIndex: 0
  - serializedVersion: 1
    m_DirtyIndex: 0
  - serializedVersion: 1
    m_DirtyIndex: 0
  - serializedVersion: 1
    m_DirtyIndex: 0
  - serializedVersion: 1
    m_DirtyIndex: 0
  - serializedVersion: 1
    m_DirtyIndex: 0
  - serializedVersion: 1
    m_DirtyIndex: 0
  - serializedVersion: 1
    m_DirtyIndex: 0
  - serializedVersion: 1
    m_DirtyIndex: 0
  - serializedVersion: 1
    m_DirtyIndex: 0
  - serializedVersion: 1
    m_DirtyIndex: 0
  - serializedVersion: 1
    m_DirtyIndex: 0
  - serializedVersion: 1
    m_DirtyIndex: 0
  - serializedVersion: 1
    m_DirtyIndex: 0
  - serializedVersion: 1
    m_DirtyIndex: 0
  - serializedVersion: 1
    m_DirtyIndex: 0
  - serializedVersion: 1
    m_DirtyIndex: 0
  - serializedVersion: 1
    m_DirtyIndex: 0
  - serializedVersion: 1
    m_DirtyIndex: 0
  - serializedVersion: 1
    m_DirtyIndex: 0
  - serializedVersion: 1
    m_DirtyIndex: 0
  - serializedVersion: 1
    m_DirtyIndex: 0
  - serializedVersion: 1
    m_DirtyIndex: 0
  - serializedVersion: 1
    m_DirtyIndex: 0
  - serializedVersion: 1
    m_DirtyIndex: 0
  - serializedVersion: 1
    m_DirtyIndex: 0
  - serializedVersion: 1
    m_DirtyIndex: 0
  - serializedVersion: 1
    m_DirtyIndex: 0
  - serializedVersion: 1
    m_DirtyIndex: 0
  - serializedVersion: 1
    m_DirtyIndex: 0
  - serializedVersion: 1
    m_DirtyIndex: 0
  - serializedVersion: 1
    m_DirtyIndex: 0
  - serializedVersion: 1
    m_DirtyIndex: 0
  - serializedVersion: 1
    m_DirtyIndex: 0
  - serializedVersion: 1
    m_DirtyIndex: 0
  - serializedVersion: 1
    m_DirtyIndex: 0
  - serializedVersion: 1
    m_DirtyIndex: 0
  - serializedVersion: 1
    m_DirtyIndex: 0
  - serializedVersion: 1
    m_DirtyIndex: 0
